{
  "formatVersion": 1,
  "database": {
    "version": 9,
    "identityHash": "8498957fce5b8f1ffb80e84da36f9e55",
    "entities": [
      {
        "tableName": "user_table",
        "createSql": "CREATE TABLE IF NOT EXISTS `${TABLE_NAME}` (`uid` INTEGER PRIMARY KEY AUTOINCREMENT NOT NULL, `uuid` TEXT, `stats` TEXT, `prefs` TEXT)",
        "fields": [
          {
            "fieldPath": "uid",
            "columnName": "uid",
            "affinity": "INTEGER",
            "notNull": true
          },
          {
            "fieldPath": "uuid",
            "columnName": "uuid",
            "affinity": "TEXT",
            "notNull": false
          },
          {
            "fieldPath": "stats",
            "columnName": "stats",
            "affinity": "TEXT",
            "notNull": false
          },
          {
            "fieldPath": "prefs",
            "columnName": "prefs",
            "affinity": "TEXT",
            "notNull": false
          }
        ],
        "primaryKey": {
          "columnNames": [
            "uid"
          ],
          "autoGenerate": true
        },
        "indices": [],
        "foreignKeys": []
      },
      {
        "tableName": "game_table",
        "createSql": "CREATE TABLE IF NOT EXISTS `${TABLE_NAME}` (`game_id` INTEGER, `content` TEXT, `lemma_lang` TEXT, `sense_lang` TEXT, `performance` TEXT DEFAULT NULL, `transferred` INTEGER NOT NULL DEFAULT FALSE, PRIMARY KEY(`game_id`))",
        "fields": [
          {
            "fieldPath": "game_id",
            "columnName": "game_id",
            "affinity": "INTEGER",
            "notNull": false
          },
          {
            "fieldPath": "content",
            "columnName": "content",
            "affinity": "TEXT",
            "notNull": false
          },
          {
            "fieldPath": "lemma_lang",
            "columnName": "lemma_lang",
            "affinity": "TEXT",
            "notNull": false
          },
          {
            "fieldPath": "sense_lang",
            "columnName": "sense_lang",
            "affinity": "TEXT",
            "notNull": false
          },
          {
            "fieldPath": "performance",
            "columnName": "performance",
            "affinity": "TEXT",
            "notNull": false,
            "defaultValue": "NULL"
          },
          {
            "fieldPath": "transferred",
            "columnName": "transferred",
            "affinity": "INTEGER",
            "notNull": true,
            "defaultValue": "FALSE"
          }
        ],
        "primaryKey": {
          "columnNames": [
            "game_id"
          ],
          "autoGenerate": false
        },
        "indices": [],
        "foreignKeys": []
      },
      {
        "tableName": "sense_creation_table",
        "createSql": "CREATE TABLE IF NOT EXISTS `${TABLE_NAME}` (`creation_id` INTEGER, `suggestion_content` TEXT, `player_input` TEXT DEFAULT NULL, `sense_lang` TEXT, `skipped` INTEGER DEFAULT FALSE, `transferred` INTEGER NOT NULL DEFAULT FALSE, `lemma_lang` TEXT, PRIMARY KEY(`creation_id`))",
        "fields": [
          {
            "fieldPath": "creation_id",
            "columnName": "creation_id",
            "affinity": "INTEGER",
            "notNull": false
          },
          {
            "fieldPath": "suggestion_content",
            "columnName": "suggestion_content",
            "affinity": "TEXT",
            "notNull": false
          },
          {
            "fieldPath": "player_input",
            "columnName": "player_input",
            "affinity": "TEXT",
            "notNull": false,
            "defaultValue": "NULL"
          },
          {
            "fieldPath": "sense_lang",
            "columnName": "sense_lang",
            "affinity": "TEXT",
            "notNull": false
          },
          {
            "fieldPath": "skipped",
            "columnName": "skipped",
            "affinity": "INTEGER",
            "notNull": false,
            "defaultValue": "FALSE"
          },
          {
            "fieldPath": "transferred",
            "columnName": "transferred",
            "affinity": "INTEGER",
            "notNull": true,
            "defaultValue": "FALSE"
          },
          {
            "fieldPath": "lemma_lang",
            "columnName": "lemma_lang",
            "affinity": "TEXT",
            "notNull": false
          }
        ],
        "primaryKey": {
          "columnNames": [
            "creation_id"
          ],
          "autoGenerate": false
        },
        "indices": [],
        "foreignKeys": []
      }
    ],
    "views": [],
    "setupQueries": [
      "CREATE TABLE IF NOT EXISTS room_master_table (id INTEGER PRIMARY KEY,identity_hash TEXT)",
      "INSERT OR REPLACE INTO room_master_table (id,identity_hash) VALUES(42, '8498957fce5b8f1ffb80e84da36f9e55')"
    ]
  }
}